{
    "chartConfig": {
        "costFactorInDollar": 0.12,
        "heatMapRadius": 15,
        "PIRMAX": 20,
        "PWMAX": 20,
        "CTMAX": 4000,
        "AQMAX": 800,
        "ALMAX": 150,
        "TEMPMAX": 28,
        "HUMMAX": 30
    },
    "humidexRangeConfig": {
        "goodMin": 11,
        "goodMax": 25,
        "goodColor": "#009900",
        "normalMin": 25,
        "normalMax": 32,
        "normalColor": "#FFFF00",
        "notGoodMin": 33,
        "notGoodMax": 100,
        "notGoodColor": "#FF8000",
        "badMin": -50,
        "badMax": 10,
        "badColor": "#FF0000"
    },
    "sensorUnitConfig": {
        "temperature": "Fahrenheit"
    },
    "applicationConfig": {
        "name": "Molex Web Portal",
        "version": "v1.4.3.4",
        "location": "Goldleaf",
        "longitude": "-119.70289029",
        "latitude": "36.71829033",
        "timeZone": "America/Chicago"
    },
    "smartcoreConfig": {
        "buildings": [
            {
                "name": "Building100",
                "location": "Goldleaf",
                "ip": "192.168.80.178",
                "longitude": "-119.70598019",
                "latitude": "36.11111111"
            },
            {
                "name": "Building2",
                "location": "Cecile",
                "ip": "71.201.6.178",
                "longitude": "-119.70289029",
                "latitude": "36.22222222"
            }
        ]
    },
    "dbConfig": {
        "database": "Molex",
        "host": "localhost",
        "password": "admin123",
        "user": "root",
        "multipleStatements": true
    },
    "themeConfig": {
        "theme": "dark"
    },
    "systemConfig": {
        "port": "888"
    },
    "jwtConfig": {
        "expiry": "12h",
        "secretKey": "MolexWebPort"
    },
    "apiConfig": {
        "IP": "192.168.80.65",
        "port": "81"
    },
    "dmsConfig": {
        "IP": "192.168.80.63",
        "DMSport": "49994",
        "firmwarePort": "49993"
    },
    "mqttConfig": {
        "enable": false,
        "brokerUrl": "mqtt://192.168.80.65",
        "options": {
            "clientId": "user",
            "port": "1883",
            "keepalive": 0,
            "reconnectPeriod": 1000,
            "connectTimeout": 30000,
            "username": "admin",
            "password": "admin",
            "clean": false
        },
        "topics": {}
    }
}